TIMESTAMP,JAVA_NAME,MACHINE_NAME,CMD,THRESHOLD,PTIME,START,END,SECDIFFERENCE
2016-03-31 16:20:27.236,Transfer1,aldenv130,ssh aldenv139 'java -cp /tmp/Agent Transfer1 >> /tmp/Agent/outTransfer1.txt',25,10,56243645083541,56252264458812,8.619375271
2016-03-31 16:23:38.365,Transfer2,aldenv130,ssh aldenv136 'java -cp /tmp/Agent Transfer2 >> /tmp/Agent/outTransfer2.txt',25,10,56423508513637,56443394681626,19.886167989
2016-03-31 16:26:51.815,Transfer3,aldenv130,ssh aldenv136 'java -cp /tmp/Agent Transfer3 >> /tmp/Agent/outTransfer3.txt',25,10,56603498094380,56636844870475,33.346776095
2016-03-31 16:31:07.964,Transfer1,aldenv130,ssh aldenv139 'java -cp /tmp/Agent Transfer1 >> /tmp/Agent/outTransfer1.txt',50,10,56884419778754,56892993634556,8.573855802
2016-03-31 16:34:15.453,Transfer2,aldenv130,ssh aldenv135 'java -cp /tmp/Agent Transfer2 >> /tmp/Agent/outTransfer2.txt',50,10,57064299414862,57080482323729,16.182908867
2016-03-31 16:37:31.691,Transfer3,aldenv130,ssh aldenv134 'java -cp /tmp/Agent Transfer3 >> /tmp/Agent/outTransfer3.txt',50,10,57244236107394,57276720202615,32.484095221
2016-03-31 17:02:08.591,Transfer1,aldenv130,ssh aldenv136 'java -cp /tmp/Agent Transfer1 >> /tmp/Agent/outTransfer1.txt',75,10,58745215364863,58753619652468,8.404287605
2016-03-31 17:05:18.664,Transfer2,aldenv130,ssh aldenv134 'java -cp /tmp/Agent Transfer2 >> /tmp/Agent/outTransfer2.txt',75,10,58925138705327,58943693575703,18.554870376
2016-03-31 17:08:39.022,Transfer3,aldenv130,ssh aldenv136 'java -cp /tmp/Agent Transfer3 >> /tmp/Agent/outTransfer3.txt',75,10,59107317147524,59144051767398,36.734619874
