TIMESTAMP,JAVA_NAME,MACHINE_NAME,CMD,THRESHOLD,PTIME,START,END,SECDIFFERENCE,NUMMACHINES,TRANSFER,BRDM1,BRDM2,BRDM3,BRDM4,BRDM5,BRDM6,BRDM7,BRDM8,BRDM9,BRDM10,BRDM11,BRDM12,BRDM13,BRDM14,BRDM15,BRDM16,BRDM17,BRDM18,BRDM19,BRDM20
2016-03-31 19:58:03.058,Transfer1,null,ssh aldenv136 'java -cp /tmp/Agent Transfer1 >> /tmp/Agent/outTransfer1.txt',25,10,4695403925604,4700090691569,4.686765965
2016-03-31 20:01:08.692,Transfer2,null,ssh aldenv137 'java -cp /tmp/Agent Transfer2 >> /tmp/Agent/outTransfer2.txt',25,10,4873731730667,4885725760428,11.994029761
2016-03-31 20:04:18.319,Transfer3,null,ssh aldenv132 'java -cp /tmp/Agent Transfer3 >> /tmp/Agent/outTransfer3.txt',25,10,5053804196735,5075352243571,21.548046836
2016-03-31 20:07:02.653,Transfer1,null,ssh aldenv137 'java -cp /tmp/Agent Transfer1 >> /tmp/Agent/outTransfer1.txt',50,10,5236629134564,5239686526332,3.057391768
2016-03-31 20:10:11.936,Transfer2,null,ssh aldenv132 'java -cp /tmp/Agent Transfer2 >> /tmp/Agent/outTransfer2.txt',50,10,5414121635279,5428969478896,14.847843617
2016-03-31 20:13:23.948,Transfer3,null,ssh aldenv135 'java -cp /tmp/Agent Transfer3 >> /tmp/Agent/outTransfer3.txt',50,10,5595324894024,5620981679430,25.656785406
2016-03-31 20:16:01.043,Transfer1,null,ssh aldenv139 'java -cp /tmp/Agent Transfer1 >> /tmp/Agent/outTransfer1.txt',75,10,5775388186783,5778076041524,2.687854741
2016-03-31 20:19:10.31,Transfer2,null,ssh aldenv137 'java -cp /tmp/Agent Transfer2 >> /tmp/Agent/outTransfer2.txt',75,10,5954148131785,5967343790724,13.195658939
2016-03-31 20:22:31.353,Transfer3,null,ssh aldenv132 'java -cp /tmp/Agent Transfer3 >> /tmp/Agent/outTransfer3.txt',75,10,6134361866876,6168386083419,34.024216543
