TIMESTAMP,JAVA_NAME,MACHINE_NAME,CMD,THRESHOLD,PTIME,START,END,SECDIFFERENCE,NUMMACHINES,TRANSFER,BRDM1,BRDM2,BRDM3,BRDM4,BRDM5,BRDM6,BRDM7,BRDM8,BRDM9,BRDM10,BRDM11,BRDM12,BRDM13,BRDM14,BRDM15,BRDM16,BRDM17,BRDM18,BRDM19,BRDM20
2016-03-31 08:31:39.49,Transfer1,null,ssh lukevm-3 'java -cp /Agent Transfer1 >> /Agent/outTransfer1.txt',25,10,129969724110682,129986585563496,16.861452814
2016-03-31 08:42:35.557,Transfer2,null,ssh lukevm-3 'java -cp /Agent Transfer2 >> /Agent/outTransfer2.txt',25,10,130567829594134,130642704205363,74.874611229
2016-03-31 08:53:17.051,Transfer3,null,ssh lukevm-1 'java -cp /Agent Transfer3 >> /Agent/outTransfer3.txt',25,10,131166866860428,131284198087797,117.331227369
